{
    // See https://go.microsoft.com//fwlink//?linkid=834763 for more information about this file.
    "configurations": [
        {
            "name": "windows-x64-debug",
            "generator": "Ninja",
            "configurationType": "Debug",
            "inheritEnvironments": [ "msvc_x64_x64" ],
            "buildRoot": "${workspaceRoot}\\..\\..\\build-ceda-samples\\${name}",
            "installRoot": "${workspaceRoot}\\..\\..\\build-ceda-samples\\${name}\\install",
            "cmakeCommandArgs": "",
            "buildCommandArgs": "-j8",
            "variables": [
                {
                    "name": "CMAKE_TOOLCHAIN_FILE",
                    "value": "${env.CEDA_VCPKG_ROOT_DIR}\\scripts\\buildsystems\\vcpkg.cmake"
                },
                {
                    "name": "VCPKG_TARGET_TRIPLET",
                    "value": "x64-windows"
                },
                {
                    "name": "BUILD_SHARED_LIBS",
                    "value": "ON"
                },
                {
                    "name": "CMAKE_WINDOWS_EXPORT_ALL_SYMBOLS",
                    "value": "TRUE"
                }
            ],
            "ctestCommandArgs": ""
        },
        {
            "name": "windows-x64",
            "generator": "Ninja",
            "configurationType": "RelWithDebInfo",
            "inheritEnvironments": [ "msvc_x64_x64" ],
            "buildRoot": "${workspaceRoot}\\..\\..\\build-ceda-samples\\${name}",
            "installRoot": "${workspaceRoot}\\..\\..\\build-ceda-samples\\${name}\\install",
            "cmakeCommandArgs": "",
            "buildCommandArgs": "-j8",
            "variables": [
                {
                    "name": "CMAKE_TOOLCHAIN_FILE",
                    "value": "${env.CEDA_VCPKG_ROOT_DIR}\\scripts\\buildsystems\\vcpkg.cmake"
                },
                {
                    "name": "VCPKG_TARGET_TRIPLET",
                    "value": "x64-windows"
                },
                {
                    "name": "BUILD_SHARED_LIBS",
                    "value": "ON"
                },
                {
                    "name": "CMAKE_WINDOWS_EXPORT_ALL_SYMBOLS",
                    "value": "TRUE"
                }
            ],
            "ctestCommandArgs": ""
        },
        {
            "name": "windows-x64-static-debug",
            "generator": "Ninja",
            "configurationType": "Debug",
            "inheritEnvironments": [ "msvc_x64_x64" ],
            "buildRoot": "${workspaceRoot}\\..\\..\\build-ceda-samples\\${name}",
            "installRoot": "${workspaceRoot}\\..\\..\\build-ceda-samples\\${name}\\install",
            "cmakeCommandArgs": "",
            "buildCommandArgs": "-j8",
            "variables": [
                {
                    "name": "CMAKE_TOOLCHAIN_FILE",
                    "value": "${env.CEDA_VCPKG_ROOT_DIR}\\scripts\\buildsystems\\vcpkg.cmake"
                },
                {
                    "name": "VCPKG_TARGET_TRIPLET",
                    "value": "x64-windows-static"
                },
                {
                    "name": "BUILD_SHARED_LIBS",
                    "value": "OFF"
                },
                {
                    "name": "CMAKE_WINDOWS_EXPORT_ALL_SYMBOLS",
                    "value": "TRUE"
                }
            ],
            "ctestCommandArgs": ""
        },
        {
            "name": "windows-x64-static",
            "generator": "Ninja",
            "configurationType": "RelWithDebInfo",
            "inheritEnvironments": [ "msvc_x64_x64" ],
            "buildRoot": "${workspaceRoot}\\..\\..\\build-ceda-samples\\${name}",
            "installRoot": "${workspaceRoot}\\..\\..\\build-ceda-samples\\${name}\\install",
            "cmakeCommandArgs": "",
            "buildCommandArgs": "-j8",
            "variables": [
                {
                    "name": "CMAKE_TOOLCHAIN_FILE",
                    "value": "${env.CEDA_VCPKG_ROOT_DIR}\\scripts\\buildsystems\\vcpkg.cmake"
                },
                {
                    "name": "VCPKG_TARGET_TRIPLET",
                    "value": "x64-windows-static"
                },
                {
                    "name": "BUILD_SHARED_LIBS",
                    "value": "OFF"
                },
                {
                    "name": "CMAKE_WINDOWS_EXPORT_ALL_SYMBOLS",
                    "value": "TRUE"
                }
            ],
            "ctestCommandArgs": ""
        },
        {
            "name": "windows-x64-debug-clang",
            "generator": "Ninja",
            "configurationType": "Debug",
            "inheritEnvironments": [ "msvc_x64_x64" ],
            "buildRoot": "${workspaceRoot}\\..\\..\\build-ceda-samples\\${name}",
            "installRoot": "${workspaceRoot}\\..\\..\\build-ceda-samples\\${name}\\install",
            "cmakeCommandArgs": "",
            "buildCommandArgs": "-j8",
            "variables": [
                {
                    "name": "CMAKE_CXX_COMPILER",
                    "value": "C:/Program Files/LLVM/bin/clang-cl.exe"
                },
                {
                    "name": "CMAKE_C_COMPILER",
                    "value": "C:/Program Files/LLVM/bin/clang-cl.exe"
                },
                {
                    "name": "CMAKE_TOOLCHAIN_FILE",
                    "value": "${env.CEDA_VCPKG_ROOT_DIR}\\scripts\\buildsystems\\vcpkg.cmake"
                },
                {
                    "name": "VCPKG_TARGET_TRIPLET",
                    "value": "x64-windows"
                },
                {
                    "name": "BUILD_SHARED_LIBS",
                    "value": "ON"
                },
                {
                    "name": "CMAKE_WINDOWS_EXPORT_ALL_SYMBOLS",
                    "value": "TRUE"
                }
            ],
            "ctestCommandArgs": ""
        },
        {
            "name": "windows-x64-clang",
            "generator": "Ninja",
            "configurationType": "RelWithDebInfo",
            "inheritEnvironments": [ "msvc_x64_x64" ],
            "buildRoot": "${workspaceRoot}\\..\\..\\build-ceda-samples\\${name}",
            "installRoot": "${workspaceRoot}\\..\\..\\build-ceda-samples\\${name}\\install",
            "cmakeCommandArgs": "",
            "buildCommandArgs": "-j8",
            "variables": [
                {
                    "name": "CMAKE_CXX_COMPILER",
                    "value": "C:/Program Files/LLVM/bin/clang-cl.exe"
                },
                {
                    "name": "CMAKE_C_COMPILER",
                    "value": "C:/Program Files/LLVM/bin/clang-cl.exe"
                },
                {
                    "name": "CMAKE_TOOLCHAIN_FILE",
                    "value": "${env.CEDA_VCPKG_ROOT_DIR}\\scripts\\buildsystems\\vcpkg.cmake"
                },
                {
                    "name": "VCPKG_TARGET_TRIPLET",
                    "value": "x64-windows"
                },
                {
                    "name": "BUILD_SHARED_LIBS",
                    "value": "ON"
                },
                {
                    "name": "CMAKE_WINDOWS_EXPORT_ALL_SYMBOLS",
                    "value": "TRUE"
                }
            ],
            "ctestCommandArgs": ""
        },
        {
            "name": "windows-x86-debug",
            "generator": "Ninja",
            "configurationType": "Debug",
            "inheritEnvironments": [ "msvc_x86" ],
            "buildRoot": "${workspaceRoot}\\..\\..\\build-ceda-samples\\${name}",
            "installRoot": "${workspaceRoot}\\..\\..\\build-ceda-samples\\${name}\\install",
            "cmakeCommandArgs": "",
            "buildCommandArgs": "-j8",
            "variables": [
                {
                    "name": "CMAKE_TOOLCHAIN_FILE",
                    "value": "${env.CEDA_VCPKG_ROOT_DIR}\\scripts\\buildsystems\\vcpkg.cmake"
                },
                {
                    "name": "VCPKG_TARGET_TRIPLET",
                    "value": "x86-windows"
                },
                {
                    "name": "BUILD_SHARED_LIBS",
                    "value": "ON"
                },
                {
                    "name": "CMAKE_WINDOWS_EXPORT_ALL_SYMBOLS",
                    "value": "TRUE"
                }
            ],
            "ctestCommandArgs": ""
        },
        {
            "name": "windows-x86",
            "generator": "Ninja",
            "configurationType": "RelWithDebInfo",
            "inheritEnvironments": [ "msvc_x86" ],
            "buildRoot": "${workspaceRoot}\\..\\..\\build-ceda-samples\\${name}",
            "installRoot": "${workspaceRoot}\\..\\..\\build-ceda-samples\\${name}\\install",
            "cmakeCommandArgs": "",
            "buildCommandArgs": "-j8",
            "variables": [
                {
                    "name": "CMAKE_TOOLCHAIN_FILE",
                    "value": "${env.CEDA_VCPKG_ROOT_DIR}\\scripts\\buildsystems\\vcpkg.cmake"
                },
                {
                    "name": "VCPKG_TARGET_TRIPLET",
                    "value": "x86-windows"
                },
                {
                    "name": "BUILD_SHARED_LIBS",
                    "value": "ON"
                },
                {
                    "name": "CMAKE_WINDOWS_EXPORT_ALL_SYMBOLS",
                    "value": "TRUE"
                }
            ],
            "ctestCommandArgs": ""
        },
        {
            "name": "windows-x86-static-debug",
            "generator": "Ninja",
            "configurationType": "Debug",
            "inheritEnvironments": [ "msvc_x86" ],
            "buildRoot": "${workspaceRoot}\\..\\..\\build-ceda-samples\\${name}",
            "installRoot": "${workspaceRoot}\\..\\..\\build-ceda-samples\\${name}\\install",
            "cmakeCommandArgs": "",
            "buildCommandArgs": "-j8",
            "variables": [
                {
                    "name": "CMAKE_TOOLCHAIN_FILE",
                    "value": "${env.CEDA_VCPKG_ROOT_DIR}\\scripts\\buildsystems\\vcpkg.cmake"
                },
                {
                    "name": "VCPKG_TARGET_TRIPLET",
                    "value": "x86-windows-static"
                },
                {
                    "name": "BUILD_SHARED_LIBS",
                    "value": "OFF"
                },
                {
                    "name": "CMAKE_WINDOWS_EXPORT_ALL_SYMBOLS",
                    "value": "TRUE"
                }
            ],
            "ctestCommandArgs": ""
        },
        {
            "name": "windows-x86-static",
            "generator": "Ninja",
            "configurationType": "RelWithDebInfo",
            "inheritEnvironments": [ "msvc_x86" ],
            "buildRoot": "${workspaceRoot}\\..\\..\\build-ceda-samples\\${name}",
            "installRoot": "${workspaceRoot}\\..\\..\\build-ceda-samples\\${name}\\install",
            "cmakeCommandArgs": "",
            "buildCommandArgs": "-j8",
            "variables": [
                {
                    "name": "CMAKE_TOOLCHAIN_FILE",
                    "value": "${env.CEDA_VCPKG_ROOT_DIR}\\scripts\\buildsystems\\vcpkg.cmake"
                },
                {
                    "name": "VCPKG_TARGET_TRIPLET",
                    "value": "x86-windows-static"
                },
                {
                    "name": "BUILD_SHARED_LIBS",
                    "value": "OFF"
                },
                {
                    "name": "CMAKE_WINDOWS_EXPORT_ALL_SYMBOLS",
                    "value": "TRUE"
                }
            ],
            "ctestCommandArgs": ""
        }
    ]
}